{
  "names": [
    "Rock Crab"
  ],
  "attackAnim": 1313,
  "attackSound": -1,
  "defenceAnim": 1312,
  "defendSound": -1,
  "deathAnim": 1314,
  "deathDelay": 2,
  "deathSound": -1,
  "respawnDelay": 59,
  "hitpoints": 510,
  "maxHit": 15,
  "attackStyle": "MELEE",
  "attackBonus": "CRUSH_ATT",
  "combatLevels": {
    "ATTACK": 1,
    "RANGE": 1,
    "STRENGTH": 1,
    "DEFENSE": 1,
    "MAGE": 1
  },
  "attackRange": -1,
  "attackGfx": -1,
  "attackProjectile": -1,
  "agressivenessType": "AGGRESSIVE",
  "aggroDistance": 4,
  "deAggroDistance": -1,
  "maxDistFromSpawn": -1
}